%YAML 1.1
%TAG !u! tag:unity3d.com,2011:
--- !u!1 &183472
GameObject:
  m_ObjectHideFlags: 0
  m_PrefabParentObject: {fileID: 0}
  m_PrefabInternal: {fileID: 100100000}
  serializedVersion: 4
  m_Component:
  - 4: {fileID: 459286}
  - 212: {fileID: 21202880}
  - 58: {fileID: 5811088}
  - 50: {fileID: 5060012}
  - 114: {fileID: 11456702}
  - 114: {fileID: 11410612}
  m_Layer: 0
  m_Name: Player
  m_TagString: Player
  m_Icon: {fileID: 0}
  m_NavMeshLayer: 0
  m_StaticEditorFlags: 0
  m_IsActive: 1
--- !u!4 &459286
Transform:
  m_ObjectHideFlags: 1
  m_PrefabParentObject: {fileID: 0}
  m_PrefabInternal: {fileID: 100100000}
  m_GameObject: {fileID: 183472}
  m_LocalRotation: {x: 0, y: 0, z: 0, w: 1}
  m_LocalPosition: {x: 0, y: 0, z: 0}
  m_LocalScale: {x: 1, y: 1, z: 1}
  m_Children: []
  m_Father: {fileID: 0}
  m_RootOrder: 0
--- !u!50 &5060012
Rigidbody2D:
  serializedVersion: 2
  m_ObjectHideFlags: 1
  m_PrefabParentObject: {fileID: 0}
  m_PrefabInternal: {fileID: 100100000}
  m_GameObject: {fileID: 183472}
  m_UseAutoMass: 0
  m_Mass: 1
  m_LinearDrag: 0
  m_AngularDrag: 0.05
  m_GravityScale: 0
  m_IsKinematic: 0
  m_Interpolate: 0
  m_SleepingMode: 1
  m_CollisionDetection: 0
  m_Constraints: 0
--- !u!58 &5811088
CircleCollider2D:
  m_ObjectHideFlags: 1
  m_PrefabParentObject: {fileID: 0}
  m_PrefabInternal: {fileID: 100100000}
  m_GameObject: {fileID: 183472}
  m_Enabled: 1
  m_Density: 1
  m_Material: {fileID: 0}
  m_IsTrigger: 0
  m_UsedByEffector: 0
  m_Offset: {x: 0, y: 0}
  serializedVersion: 2
  m_Radius: 0.09
--- !u!114 &11410612
MonoBehaviour:
  m_ObjectHideFlags: 1
  m_PrefabParentObject: {fileID: 0}
  m_PrefabInternal: {fileID: 100100000}
  m_GameObject: {fileID: 183472}
  m_Enabled: 1
  m_EditorHideFlags: 0
  m_Script: {fileID: 11500000, guid: 625fca5da565a4af8b6e9a615d48b6fc, type: 3}
  m_Name: 
  m_EditorClassIdentifier: 
  frameInterval: 0.3
  leftIdleFrames:
  - {fileID: 21300018, guid: 4fb9e0670bf784dbeafa16d5f515e8aa, type: 3}
  rightIdleFrames:
  - {fileID: 21300006, guid: 4fb9e0670bf784dbeafa16d5f515e8aa, type: 3}
  upIdleFrames:
  - {fileID: 21300012, guid: 4fb9e0670bf784dbeafa16d5f515e8aa, type: 3}
  downIdleFrames:
  - {fileID: 21300000, guid: 4fb9e0670bf784dbeafa16d5f515e8aa, type: 3}
  leftWalkFrames:
  - {fileID: 21300020, guid: 4fb9e0670bf784dbeafa16d5f515e8aa, type: 3}
  - {fileID: 21300022, guid: 4fb9e0670bf784dbeafa16d5f515e8aa, type: 3}
  rightWalkFrames:
  - {fileID: 21300008, guid: 4fb9e0670bf784dbeafa16d5f515e8aa, type: 3}
  - {fileID: 21300010, guid: 4fb9e0670bf784dbeafa16d5f515e8aa, type: 3}
  upWalkFrames:
  - {fileID: 21300014, guid: 4fb9e0670bf784dbeafa16d5f515e8aa, type: 3}
  - {fileID: 21300016, guid: 4fb9e0670bf784dbeafa16d5f515e8aa, type: 3}
  downWalkFrames:
  - {fileID: 21300002, guid: 4fb9e0670bf784dbeafa16d5f515e8aa, type: 3}
  - {fileID: 21300004, guid: 4fb9e0670bf784dbeafa16d5f515e8aa, type: 3}
--- !u!114 &11456702
MonoBehaviour:
  m_ObjectHideFlags: 1
  m_PrefabParentObject: {fileID: 0}
  m_PrefabInternal: {fileID: 100100000}
  m_GameObject: {fileID: 183472}
  m_Enabled: 1
  m_EditorHideFlags: 0
  m_Script: {fileID: 11500000, guid: 0313770e1f20544098c1552658f73454, type: 3}
  m_Name: 
  m_EditorClassIdentifier: 
  speed: 2
--- !u!212 &21202880
SpriteRenderer:
  m_ObjectHideFlags: 1
  m_PrefabParentObject: {fileID: 0}
  m_PrefabInternal: {fileID: 100100000}
  m_GameObject: {fileID: 183472}
  m_Enabled: 1
  m_CastShadows: 0
  m_ReceiveShadows: 0
  m_Materials:
  - {fileID: 10754, guid: 0000000000000000e000000000000000, type: 0}
  m_SubsetIndices: 
  m_StaticBatchRoot: {fileID: 0}
  m_UseLightProbes: 0
  m_ReflectionProbeUsage: 0
  m_ProbeAnchor: {fileID: 0}
  m_ScaleInLightmap: 1
  m_PreserveUVs: 0
  m_IgnoreNormalsForChartDetection: 0
  m_ImportantGI: 0
  m_MinimumChartSize: 4
  m_AutoUVMaxDistance: 0.5
  m_AutoUVMaxAngle: 89
  m_LightmapParameters: {fileID: 0}
  m_SortingLayerID: 0
  m_SortingOrder: 0
  m_Sprite: {fileID: 21300000, guid: 4fb9e0670bf784dbeafa16d5f515e8aa, type: 3}
  m_Color: {r: 1, g: 1, b: 1, a: 1}
  m_FlipX: 0
  m_FlipY: 0
--- !u!1001 &100100000
Prefab:
  m_ObjectHideFlags: 1
  serializedVersion: 2
  m_Modification:
    m_TransformParent: {fileID: 0}
    m_Modifications: []
    m_RemovedComponents: []
  m_ParentPrefab: {fileID: 0}
  m_RootGameObject: {fileID: 183472}
  m_IsPrefabParent: 1
