%YAML 1.1
%TAG !u! tag:unity3d.com,2011:
--- !u!74 &7400000
AnimationClip:
  m_ObjectHideFlags: 0
  m_PrefabParentObject: {fileID: 0}
  m_PrefabInternal: {fileID: 0}
  m_Name: StatBoxHighlighted
  serializedVersion: 6
  m_Legacy: 0
  m_Compressed: 0
  m_UseHighQualityCurve: 1
  m_RotationCurves: []
  m_CompressedRotationCurves: []
  m_EulerCurves: []
  m_PositionCurves: []
  m_ScaleCurves:
  - curve:
      serializedVersion: 2
      m_Curve:
      - time: 0
        value: {x: 1.05, y: 1.05, z: 1.05}
        inSlope: {x: -0.07999992, y: -0.07999992, z: -0.07999992}
        outSlope: {x: -0.07999992, y: -0.07999992, z: -0.07999992}
        tangentMode: 0
      - time: 0.5
        value: {x: 1.01, y: 1.01, z: 1.01}
        inSlope: {x: 0, y: 0, z: 0}
        outSlope: {x: 0, y: 0, z: 0}
        tangentMode: 0
      - time: 1
        value: {x: 1.05, y: 1.05, z: 1.05}
        inSlope: {x: 0.07999992, y: 0.07999992, z: 0.07999992}
        outSlope: {x: 0.07999992, y: 0.07999992, z: 0.07999992}
        tangentMode: 0
      m_PreInfinity: 2
      m_PostInfinity: 2
      m_RotationOrder: 4
    path: 
  m_FloatCurves:
  - curve:
      serializedVersion: 2
      m_Curve:
      - time: 0
        value: 0.9019608
        inSlope: 0
        outSlope: 0
        tangentMode: 10
      - time: 0.5
        value: 0.9019608
        inSlope: 0
        outSlope: 0
        tangentMode: 10
      - time: 1
        value: 0.9019608
        inSlope: 0
        outSlope: 0
        tangentMode: 10
      m_PreInfinity: 2
      m_PostInfinity: 2
      m_RotationOrder: 4
    attribute: m_EffectColor.r
    path: HealthBar/Background
    classID: 114
    script: {fileID: -900027084, guid: f5f67c52d1564df4a8936ccd202a3bd8, type: 3}
  - curve:
      serializedVersion: 2
      m_Curve:
      - time: 0
        value: 0.5921569
        inSlope: 0
        outSlope: 0
        tangentMode: 10
      - time: 0.5
        value: 0.5921569
        inSlope: 0
        outSlope: 0
        tangentMode: 10
      - time: 1
        value: 0.5921569
        inSlope: 0
        outSlope: 0
        tangentMode: 10
      m_PreInfinity: 2
      m_PostInfinity: 2
      m_RotationOrder: 4
    attribute: m_EffectColor.g
    path: HealthBar/Background
    classID: 114
    script: {fileID: -900027084, guid: f5f67c52d1564df4a8936ccd202a3bd8, type: 3}
  - curve:
      serializedVersion: 2
      m_Curve:
      - time: 0
        value: 0.30980393
        inSlope: 0
        outSlope: 0
        tangentMode: 10
      - time: 0.5
        value: 0.30980393
        inSlope: 0
        outSlope: 0
        tangentMode: 10
      - time: 1
        value: 0.30980393
        inSlope: 0
        outSlope: 0
        tangentMode: 10
      m_PreInfinity: 2
      m_PostInfinity: 2
      m_RotationOrder: 4
    attribute: m_EffectColor.b
    path: HealthBar/Background
    classID: 114
    script: {fileID: -900027084, guid: f5f67c52d1564df4a8936ccd202a3bd8, type: 3}
  - curve:
      serializedVersion: 2
      m_Curve:
      - time: 0
        value: 0.9019608
        inSlope: 0
        outSlope: 0
        tangentMode: 10
      - time: 0.5
        value: 0.9019608
        inSlope: 0
        outSlope: 0
        tangentMode: 10
      - time: 1
        value: 0.9019608
        inSlope: 0
        outSlope: 0
        tangentMode: 10
      m_PreInfinity: 2
      m_PostInfinity: 2
      m_RotationOrder: 4
    attribute: m_EffectColor.r
    path: 
    classID: 114
    script: {fileID: -900027084, guid: f5f67c52d1564df4a8936ccd202a3bd8, type: 3}
  - curve:
      serializedVersion: 2
      m_Curve:
      - time: 0
        value: 0.5921569
        inSlope: 0
        outSlope: 0
        tangentMode: 10
      - time: 0.5
        value: 0.5921569
        inSlope: 0
        outSlope: 0
        tangentMode: 10
      - time: 1
        value: 0.5921569
        inSlope: 0
        outSlope: 0
        tangentMode: 10
      m_PreInfinity: 2
      m_PostInfinity: 2
      m_RotationOrder: 4
    attribute: m_EffectColor.g
    path: 
    classID: 114
    script: {fileID: -900027084, guid: f5f67c52d1564df4a8936ccd202a3bd8, type: 3}
  - curve:
      serializedVersion: 2
      m_Curve:
      - time: 0
        value: 0.30980393
        inSlope: 0
        outSlope: 0
        tangentMode: 10
      - time: 0.5
        value: 0.30980393
        inSlope: 0
        outSlope: 0
        tangentMode: 10
      - time: 1
        value: 0.30980393
        inSlope: 0
        outSlope: 0
        tangentMode: 10
      m_PreInfinity: 2
      m_PostInfinity: 2
      m_RotationOrder: 4
    attribute: m_EffectColor.b
    path: 
    classID: 114
    script: {fileID: -900027084, guid: f5f67c52d1564df4a8936ccd202a3bd8, type: 3}
  - curve:
      serializedVersion: 2
      m_Curve:
      - time: 0
        value: 0.9019608
        inSlope: 0
        outSlope: 0
        tangentMode: 10
      - time: 0.5
        value: 0.9019608
        inSlope: 0
        outSlope: 0
        tangentMode: 10
      - time: 1
        value: 0.9019608
        inSlope: 0
        outSlope: 0
        tangentMode: 10
      m_PreInfinity: 2
      m_PostInfinity: 2
      m_RotationOrder: 4
    attribute: m_Color.r
    path: LevelText
    classID: 114
    script: {fileID: 708705254, guid: f5f67c52d1564df4a8936ccd202a3bd8, type: 3}
  - curve:
      serializedVersion: 2
      m_Curve:
      - time: 0
        value: 0.5921569
        inSlope: 0
        outSlope: 0
        tangentMode: 10
      - time: 0.5
        value: 0.5921569
        inSlope: 0
        outSlope: 0
        tangentMode: 10
      - time: 1
        value: 0.5921569
        inSlope: 0
        outSlope: 0
        tangentMode: 10
      m_PreInfinity: 2
      m_PostInfinity: 2
      m_RotationOrder: 4
    attribute: m_Color.g
    path: LevelText
    classID: 114
    script: {fileID: 708705254, guid: f5f67c52d1564df4a8936ccd202a3bd8, type: 3}
  - curve:
      serializedVersion: 2
      m_Curve:
      - time: 0
        value: 0.30980393
        inSlope: 0
        outSlope: 0
        tangentMode: 10
      - time: 0.5
        value: 0.30980393
        inSlope: 0
        outSlope: 0
        tangentMode: 10
      - time: 1
        value: 0.30980393
        inSlope: 0
        outSlope: 0
        tangentMode: 10
      m_PreInfinity: 2
      m_PostInfinity: 2
      m_RotationOrder: 4
    attribute: m_Color.b
    path: LevelText
    classID: 114
    script: {fileID: 708705254, guid: f5f67c52d1564df4a8936ccd202a3bd8, type: 3}
  - curve:
      serializedVersion: 2
      m_Curve:
      - time: 0
        value: 0.9019608
        inSlope: 0
        outSlope: 0
        tangentMode: 10
      - time: 0.5
        value: 0.9019608
        inSlope: 0
        outSlope: 0
        tangentMode: 10
      - time: 1
        value: 0.9019608
        inSlope: 0
        outSlope: 0
        tangentMode: 10
      m_PreInfinity: 2
      m_PostInfinity: 2
      m_RotationOrder: 4
    attribute: m_Color.r
    path: NameText
    classID: 114
    script: {fileID: 708705254, guid: f5f67c52d1564df4a8936ccd202a3bd8, type: 3}
  - curve:
      serializedVersion: 2
      m_Curve:
      - time: 0
        value: 0.5921569
        inSlope: 0
        outSlope: 0
        tangentMode: 10
      - time: 0.5
        value: 0.5921569
        inSlope: 0
        outSlope: 0
        tangentMode: 10
      - time: 1
        value: 0.5921569
        inSlope: 0
        outSlope: 0
        tangentMode: 10
      m_PreInfinity: 2
      m_PostInfinity: 2
      m_RotationOrder: 4
    attribute: m_Color.g
    path: NameText
    classID: 114
    script: {fileID: 708705254, guid: f5f67c52d1564df4a8936ccd202a3bd8, type: 3}
  - curve:
      serializedVersion: 2
      m_Curve:
      - time: 0
        value: 0.30980393
        inSlope: 0
        outSlope: 0
        tangentMode: 10
      - time: 0.5
        value: 0.30980393
        inSlope: 0
        outSlope: 0
        tangentMode: 10
      - time: 1
        value: 0.30980393
        inSlope: 0
        outSlope: 0
        tangentMode: 10
      m_PreInfinity: 2
      m_PostInfinity: 2
      m_RotationOrder: 4
    attribute: m_Color.b
    path: NameText
    classID: 114
    script: {fileID: 708705254, guid: f5f67c52d1564df4a8936ccd202a3bd8, type: 3}
  - curve:
      serializedVersion: 2
      m_Curve:
      - time: 0
        value: 0.9019608
        inSlope: 0
        outSlope: 0
        tangentMode: 10
      - time: 0.5
        value: 0.9019608
        inSlope: 0
        outSlope: 0
        tangentMode: 10
      - time: 1
        value: 0.9019608
        inSlope: 0
        outSlope: 0
        tangentMode: 10
      m_PreInfinity: 2
      m_PostInfinity: 2
      m_RotationOrder: 4
    attribute: m_Color.r
    path: HPText
    classID: 114
    script: {fileID: 708705254, guid: f5f67c52d1564df4a8936ccd202a3bd8, type: 3}
  - curve:
      serializedVersion: 2
      m_Curve:
      - time: 0
        value: 0.5921569
        inSlope: 0
        outSlope: 0
        tangentMode: 10
      - time: 0.5
        value: 0.5921569
        inSlope: 0
        outSlope: 0
        tangentMode: 10
      - time: 1
        value: 0.5921569
        inSlope: 0
        outSlope: 0
        tangentMode: 10
      m_PreInfinity: 2
      m_PostInfinity: 2
      m_RotationOrder: 4
    attribute: m_Color.g
    path: HPText
    classID: 114
    script: {fileID: 708705254, guid: f5f67c52d1564df4a8936ccd202a3bd8, type: 3}
  - curve:
      serializedVersion: 2
      m_Curve:
      - time: 0
        value: 0.30980393
        inSlope: 0
        outSlope: 0
        tangentMode: 10
      - time: 0.5
        value: 0.30980393
        inSlope: 0
        outSlope: 0
        tangentMode: 10
      - time: 1
        value: 0.30980393
        inSlope: 0
        outSlope: 0
        tangentMode: 10
      m_PreInfinity: 2
      m_PostInfinity: 2
      m_RotationOrder: 4
    attribute: m_Color.b
    path: HPText
    classID: 114
    script: {fileID: 708705254, guid: f5f67c52d1564df4a8936ccd202a3bd8, type: 3}
  m_PPtrCurves: []
  m_SampleRate: 60
  m_WrapMode: 0
  m_Bounds:
    m_Center: {x: 0, y: 0, z: 0}
    m_Extent: {x: 0, y: 0, z: 0}
  m_ClipBindingConstant:
    genericBindings:
    - path: 0
      attribute: 3
      script: {fileID: 0}
      classID: 4
      customType: 0
      isPPtrCurve: 0
    - path: 611075760
      attribute: 3965000455
      script: {fileID: -900027084, guid: f5f67c52d1564df4a8936ccd202a3bd8, type: 3}
      classID: 114
      customType: 0
      isPPtrCurve: 0
    - path: 611075760
      attribute: 2173239276
      script: {fileID: -900027084, guid: f5f67c52d1564df4a8936ccd202a3bd8, type: 3}
      classID: 114
      customType: 0
      isPPtrCurve: 0
    - path: 611075760
      attribute: 4058123107
      script: {fileID: -900027084, guid: f5f67c52d1564df4a8936ccd202a3bd8, type: 3}
      classID: 114
      customType: 0
      isPPtrCurve: 0
    - path: 0
      attribute: 3965000455
      script: {fileID: -900027084, guid: f5f67c52d1564df4a8936ccd202a3bd8, type: 3}
      classID: 114
      customType: 0
      isPPtrCurve: 0
    - path: 0
      attribute: 2173239276
      script: {fileID: -900027084, guid: f5f67c52d1564df4a8936ccd202a3bd8, type: 3}
      classID: 114
      customType: 0
      isPPtrCurve: 0
    - path: 0
      attribute: 4058123107
      script: {fileID: -900027084, guid: f5f67c52d1564df4a8936ccd202a3bd8, type: 3}
      classID: 114
      customType: 0
      isPPtrCurve: 0
    - path: 1998224435
      attribute: 2526845255
      script: {fileID: 708705254, guid: f5f67c52d1564df4a8936ccd202a3bd8, type: 3}
      classID: 114
      customType: 0
      isPPtrCurve: 0
    - path: 1998224435
      attribute: 4215373228
      script: {fileID: 708705254, guid: f5f67c52d1564df4a8936ccd202a3bd8, type: 3}
      classID: 114
      customType: 0
      isPPtrCurve: 0
    - path: 1998224435
      attribute: 2334886179
      script: {fileID: 708705254, guid: f5f67c52d1564df4a8936ccd202a3bd8, type: 3}
      classID: 114
      customType: 0
      isPPtrCurve: 0
    - path: 733051835
      attribute: 2526845255
      script: {fileID: 708705254, guid: f5f67c52d1564df4a8936ccd202a3bd8, type: 3}
      classID: 114
      customType: 0
      isPPtrCurve: 0
    - path: 733051835
      attribute: 4215373228
      script: {fileID: 708705254, guid: f5f67c52d1564df4a8936ccd202a3bd8, type: 3}
      classID: 114
      customType: 0
      isPPtrCurve: 0
    - path: 733051835
      attribute: 2334886179
      script: {fileID: 708705254, guid: f5f67c52d1564df4a8936ccd202a3bd8, type: 3}
      classID: 114
      customType: 0
      isPPtrCurve: 0
    - path: 3492229516
      attribute: 2526845255
      script: {fileID: 708705254, guid: f5f67c52d1564df4a8936ccd202a3bd8, type: 3}
      classID: 114
      customType: 0
      isPPtrCurve: 0
    - path: 3492229516
      attribute: 4215373228
      script: {fileID: 708705254, guid: f5f67c52d1564df4a8936ccd202a3bd8, type: 3}
      classID: 114
      customType: 0
      isPPtrCurve: 0
    - path: 3492229516
      attribute: 2334886179
      script: {fileID: 708705254, guid: f5f67c52d1564df4a8936ccd202a3bd8, type: 3}
      classID: 114
      customType: 0
      isPPtrCurve: 0
    pptrCurveMapping: []
  m_AnimationClipSettings:
    serializedVersion: 2
    m_AdditiveReferencePoseClip: {fileID: 0}
    m_AdditiveReferencePoseTime: 0
    m_StartTime: 0
    m_StopTime: 1
    m_OrientationOffsetY: 0
    m_Level: 0
    m_CycleOffset: 0
    m_HasAdditiveReferencePose: 0
    m_LoopTime: 1
    m_LoopBlend: 0
    m_LoopBlendOrientation: 0
    m_LoopBlendPositionY: 0
    m_LoopBlendPositionXZ: 0
    m_KeepOriginalOrientation: 0
    m_KeepOriginalPositionY: 1
    m_KeepOriginalPositionXZ: 0
    m_HeightFromFeet: 0
    m_Mirror: 0
  m_EditorCurves:
  - curve:
      serializedVersion: 2
      m_Curve:
      - time: 0
        value: 0.9019608
        inSlope: 0
        outSlope: 0
        tangentMode: 10
      - time: 0.5
        value: 0.9019608
        inSlope: 0
        outSlope: 0
        tangentMode: 10
      - time: 1
        value: 0.9019608
        inSlope: 0
        outSlope: 0
        tangentMode: 10
      m_PreInfinity: 2
      m_PostInfinity: 2
      m_RotationOrder: 4
    attribute: m_EffectColor.r
    path: HealthBar/Background
    classID: 114
    script: {fileID: -900027084, guid: f5f67c52d1564df4a8936ccd202a3bd8, type: 3}
  - curve:
      serializedVersion: 2
      m_Curve:
      - time: 0
        value: 0.5921569
        inSlope: 0
        outSlope: 0
        tangentMode: 10
      - time: 0.5
        value: 0.5921569
        inSlope: 0
        outSlope: 0
        tangentMode: 10
      - time: 1
        value: 0.5921569
        inSlope: 0
        outSlope: 0
        tangentMode: 10
      m_PreInfinity: 2
      m_PostInfinity: 2
      m_RotationOrder: 4
    attribute: m_EffectColor.g
    path: HealthBar/Background
    classID: 114
    script: {fileID: -900027084, guid: f5f67c52d1564df4a8936ccd202a3bd8, type: 3}
  - curve:
      serializedVersion: 2
      m_Curve:
      - time: 0
        value: 0.30980393
        inSlope: 0
        outSlope: 0
        tangentMode: 10
      - time: 0.5
        value: 0.30980393
        inSlope: 0
        outSlope: 0
        tangentMode: 10
      - time: 1
        value: 0.30980393
        inSlope: 0
        outSlope: 0
        tangentMode: 10
      m_PreInfinity: 2
      m_PostInfinity: 2
      m_RotationOrder: 4
    attribute: m_EffectColor.b
    path: HealthBar/Background
    classID: 114
    script: {fileID: -900027084, guid: f5f67c52d1564df4a8936ccd202a3bd8, type: 3}
  - curve:
      serializedVersion: 2
      m_Curve:
      - time: 0
        value: 0.9019608
        inSlope: 0
        outSlope: 0
        tangentMode: 10
      - time: 0.5
        value: 0.9019608
        inSlope: 0
        outSlope: 0
        tangentMode: 10
      - time: 1
        value: 0.9019608
        inSlope: 0
        outSlope: 0
        tangentMode: 10
      m_PreInfinity: 2
      m_PostInfinity: 2
      m_RotationOrder: 4
    attribute: m_EffectColor.r
    path: 
    classID: 114
    script: {fileID: -900027084, guid: f5f67c52d1564df4a8936ccd202a3bd8, type: 3}
  - curve:
      serializedVersion: 2
      m_Curve:
      - time: 0
        value: 0.5921569
        inSlope: 0
        outSlope: 0
        tangentMode: 10
      - time: 0.5
        value: 0.5921569
        inSlope: 0
        outSlope: 0
        tangentMode: 10
      - time: 1
        value: 0.5921569
        inSlope: 0
        outSlope: 0
        tangentMode: 10
      m_PreInfinity: 2
      m_PostInfinity: 2
      m_RotationOrder: 4
    attribute: m_EffectColor.g
    path: 
    classID: 114
    script: {fileID: -900027084, guid: f5f67c52d1564df4a8936ccd202a3bd8, type: 3}
  - curve:
      serializedVersion: 2
      m_Curve:
      - time: 0
        value: 0.30980393
        inSlope: 0
        outSlope: 0
        tangentMode: 10
      - time: 0.5
        value: 0.30980393
        inSlope: 0
        outSlope: 0
        tangentMode: 10
      - time: 1
        value: 0.30980393
        inSlope: 0
        outSlope: 0
        tangentMode: 10
      m_PreInfinity: 2
      m_PostInfinity: 2
      m_RotationOrder: 4
    attribute: m_EffectColor.b
    path: 
    classID: 114
    script: {fileID: -900027084, guid: f5f67c52d1564df4a8936ccd202a3bd8, type: 3}
  - curve:
      serializedVersion: 2
      m_Curve:
      - time: 0
        value: 0.9019608
        inSlope: 0
        outSlope: 0
        tangentMode: 10
      - time: 0.5
        value: 0.9019608
        inSlope: 0
        outSlope: 0
        tangentMode: 10
      - time: 1
        value: 0.9019608
        inSlope: 0
        outSlope: 0
        tangentMode: 10
      m_PreInfinity: 2
      m_PostInfinity: 2
      m_RotationOrder: 4
    attribute: m_Color.r
    path: LevelText
    classID: 114
    script: {fileID: 708705254, guid: f5f67c52d1564df4a8936ccd202a3bd8, type: 3}
  - curve:
      serializedVersion: 2
      m_Curve:
      - time: 0
        value: 0.5921569
        inSlope: 0
        outSlope: 0
        tangentMode: 10
      - time: 0.5
        value: 0.5921569
        inSlope: 0
        outSlope: 0
        tangentMode: 10
      - time: 1
        value: 0.5921569
        inSlope: 0
        outSlope: 0
        tangentMode: 10
      m_PreInfinity: 2
      m_PostInfinity: 2
      m_RotationOrder: 4
    attribute: m_Color.g
    path: LevelText
    classID: 114
    script: {fileID: 708705254, guid: f5f67c52d1564df4a8936ccd202a3bd8, type: 3}
  - curve:
      serializedVersion: 2
      m_Curve:
      - time: 0
        value: 0.30980393
        inSlope: 0
        outSlope: 0
        tangentMode: 10
      - time: 0.5
        value: 0.30980393
        inSlope: 0
        outSlope: 0
        tangentMode: 10
      - time: 1
        value: 0.30980393
        inSlope: 0
        outSlope: 0
        tangentMode: 10
      m_PreInfinity: 2
      m_PostInfinity: 2
      m_RotationOrder: 4
    attribute: m_Color.b
    path: LevelText
    classID: 114
    script: {fileID: 708705254, guid: f5f67c52d1564df4a8936ccd202a3bd8, type: 3}
  - curve:
      serializedVersion: 2
      m_Curve:
      - time: 0
        value: 0.9019608
        inSlope: 0
        outSlope: 0
        tangentMode: 10
      - time: 0.5
        value: 0.9019608
        inSlope: 0
        outSlope: 0
        tangentMode: 10
      - time: 1
        value: 0.9019608
        inSlope: 0
        outSlope: 0
        tangentMode: 10
      m_PreInfinity: 2
      m_PostInfinity: 2
      m_RotationOrder: 4
    attribute: m_Color.r
    path: NameText
    classID: 114
    script: {fileID: 708705254, guid: f5f67c52d1564df4a8936ccd202a3bd8, type: 3}
  - curve:
      serializedVersion: 2
      m_Curve:
      - time: 0
        value: 0.5921569
        inSlope: 0
        outSlope: 0
        tangentMode: 10
      - time: 0.5
        value: 0.5921569
        inSlope: 0
        outSlope: 0
        tangentMode: 10
      - time: 1
        value: 0.5921569
        inSlope: 0
        outSlope: 0
        tangentMode: 10
      m_PreInfinity: 2
      m_PostInfinity: 2
      m_RotationOrder: 4
    attribute: m_Color.g
    path: NameText
    classID: 114
    script: {fileID: 708705254, guid: f5f67c52d1564df4a8936ccd202a3bd8, type: 3}
  - curve:
      serializedVersion: 2
      m_Curve:
      - time: 0
        value: 0.30980393
        inSlope: 0
        outSlope: 0
        tangentMode: 10
      - time: 0.5
        value: 0.30980393
        inSlope: 0
        outSlope: 0
        tangentMode: 10
      - time: 1
        value: 0.30980393
        inSlope: 0
        outSlope: 0
        tangentMode: 10
      m_PreInfinity: 2
      m_PostInfinity: 2
      m_RotationOrder: 4
    attribute: m_Color.b
    path: NameText
    classID: 114
    script: {fileID: 708705254, guid: f5f67c52d1564df4a8936ccd202a3bd8, type: 3}
  - curve:
      serializedVersion: 2
      m_Curve:
      - time: 0
        value: 0.9019608
        inSlope: 0
        outSlope: 0
        tangentMode: 10
      - time: 0.5
        value: 0.9019608
        inSlope: 0
        outSlope: 0
        tangentMode: 10
      - time: 1
        value: 0.9019608
        inSlope: 0
        outSlope: 0
        tangentMode: 10
      m_PreInfinity: 2
      m_PostInfinity: 2
      m_RotationOrder: 4
    attribute: m_Color.r
    path: HPText
    classID: 114
    script: {fileID: 708705254, guid: f5f67c52d1564df4a8936ccd202a3bd8, type: 3}
  - curve:
      serializedVersion: 2
      m_Curve:
      - time: 0
        value: 0.5921569
        inSlope: 0
        outSlope: 0
        tangentMode: 10
      - time: 0.5
        value: 0.5921569
        inSlope: 0
        outSlope: 0
        tangentMode: 10
      - time: 1
        value: 0.5921569
        inSlope: 0
        outSlope: 0
        tangentMode: 10
      m_PreInfinity: 2
      m_PostInfinity: 2
      m_RotationOrder: 4
    attribute: m_Color.g
    path: HPText
    classID: 114
    script: {fileID: 708705254, guid: f5f67c52d1564df4a8936ccd202a3bd8, type: 3}
  - curve:
      serializedVersion: 2
      m_Curve:
      - time: 0
        value: 0.30980393
        inSlope: 0
        outSlope: 0
        tangentMode: 10
      - time: 0.5
        value: 0.30980393
        inSlope: 0
        outSlope: 0
        tangentMode: 10
      - time: 1
        value: 0.30980393
        inSlope: 0
        outSlope: 0
        tangentMode: 10
      m_PreInfinity: 2
      m_PostInfinity: 2
      m_RotationOrder: 4
    attribute: m_Color.b
    path: HPText
    classID: 114
    script: {fileID: 708705254, guid: f5f67c52d1564df4a8936ccd202a3bd8, type: 3}
  - curve:
      serializedVersion: 2
      m_Curve:
      - time: 0
        value: 1.05
        inSlope: -0.07999992
        outSlope: -0.07999992
        tangentMode: 10
      - time: 0.5
        value: 1.01
        inSlope: 0
        outSlope: 0
        tangentMode: 10
      - time: 1
        value: 1.05
        inSlope: 0.07999992
        outSlope: 0.07999992
        tangentMode: 10
      m_PreInfinity: 2
      m_PostInfinity: 2
      m_RotationOrder: 4
    attribute: m_LocalScale.x
    path: 
    classID: 224
    script: {fileID: 0}
  - curve:
      serializedVersion: 2
      m_Curve:
      - time: 0
        value: 1.05
        inSlope: -0.07999992
        outSlope: -0.07999992
        tangentMode: 10
      - time: 0.5
        value: 1.01
        inSlope: 0
        outSlope: 0
        tangentMode: 10
      - time: 1
        value: 1.05
        inSlope: 0.07999992
        outSlope: 0.07999992
        tangentMode: 10
      m_PreInfinity: 2
      m_PostInfinity: 2
      m_RotationOrder: 4
    attribute: m_LocalScale.y
    path: 
    classID: 224
    script: {fileID: 0}
  - curve:
      serializedVersion: 2
      m_Curve:
      - time: 0
        value: 1.05
        inSlope: -0.07999992
        outSlope: -0.07999992
        tangentMode: 10
      - time: 0.5
        value: 1.01
        inSlope: 0
        outSlope: 0
        tangentMode: 10
      - time: 1
        value: 1.05
        inSlope: 0.07999992
        outSlope: 0.07999992
        tangentMode: 10
      m_PreInfinity: 2
      m_PostInfinity: 2
      m_RotationOrder: 4
    attribute: m_LocalScale.z
    path: 
    classID: 224
    script: {fileID: 0}
  m_EulerEditorCurves: []
  m_HasGenericRootTransform: 0
  m_HasMotionFloatCurves: 0
  m_GenerateMotionCurves: 0
  m_Events: []
